module proof-of-wisdom

go 1.22

require (
	github.com/kelseyhightower/envconfig v1.4.0
	github.com/stretchr/testify v1.9.0
	go.uber.org/zap v1.27.0
)

require (
	github.com/davecgh/go-spew v1.1.1 // indirect
	github.com/pmezard/go-difflib v1.0.0 // indirect
	go.uber.org/multierr v1.11.0 // indirect
	gopkg.in/yaml.v3 v3.0.1 // indirect
)
